wave.vcd
$version Generated by VerilatedVcd $end
$date Mon Oct 14 17:14:34 2024
 $end
$timescale   1ns $end

 $scope module top $end
  $var wire  1 #( clk_i $end
  $var wire  1 y' rst_i $end
  $scope module test_top $end
   $var wire  1 m% ce_wire $end
   $var wire  1 #( clk_i $end
   $var wire  5 W& exe_mem_reg_waddr_o [4:0] $end
   $var wire 32 g& exe_mem_reg_wdata_o [31:0] $end
   $var wire  1 _& exe_mem_reg_we_o $end
   $var wire  5 s$ exe_reg_waddr_o [4:0] $end
   $var wire 32 %% exe_reg_wdata_o [31:0] $end
   $var wire  1 {$ exe_reg_we_o $end
   $var wire 32 O& id_exe_inst_o [31:0] $end
   $var wire 32 /& id_exe_op1_o [31:0] $end
   $var wire 32 7& id_exe_op2_o [31:0] $end
   $var wire  5 G& id_exe_reg_waddr_o [4:0] $end
   $var wire  1 ?& id_exe_reg_we_o $end
   $var wire 32 3$ id_inst_o [31:0] $end
   $var wire 32 +( id_op1_o [31:0] $end
   $var wire 32 3( id_op2_o [31:0] $end
   $var wire  5 K$ id_reg1_addr_o [4:0] $end
   $var wire  1 [$ id_reg1_re_o $end
   $var wire  5 S$ id_reg2_addr_o [4:0] $end
   $var wire  1 c$ id_reg2_re_o $end
   $var wire  5 C$ id_reg_waddr_o [4:0] $end
   $var wire  1 ;$ id_reg_we_o $end
   $var wire 32 }% if_id_inst_addr_o [31:0] $end
   $var wire 32 '& if_id_inst_o [31:0] $end
   $var wire 32 e% if_inst_addr_o [31:0] $end
   $var wire 32 u% if_inst_o [31:0] $end
   $var wire  5 -% mem_reg_waddr_o [4:0] $end
   $var wire 32 =% mem_reg_wdata_o [31:0] $end
   $var wire  1 5% mem_reg_we_o $end
   $var wire  5 o& mem_wb_reg_waddr_o [4:0] $end
   $var wire 32 !' mem_wb_reg_wdata_o [31:0] $end
   $var wire  1 w& mem_wb_reg_we_o $end
   $var wire 32 e% pc_wire [31:0] $end
   $var wire 32 k$ reg1_data_o [31:0] $end
   $var wire 32 y# reg2_data_o [31:0] $end
   $var wire  1 y' rst_i $end
   $scope module exe0 $end
    $var wire  3 a' funct3 [2:0] $end
    $var wire  7 i' funct7 [6:0] $end
    $var wire 32 O& inst_i [31:0] $end
    $var wire 32 /& op1_i [31:0] $end
    $var wire 32 7& op2_i [31:0] $end
    $var wire  7 Y' opcode [6:0] $end
    $var wire 32 ]% r_reg_wdata_o [31:0] $end
    $var wire  1 ;( r_reg_we_o $end
    $var wire  5 G& reg_waddr_i [4:0] $end
    $var wire  5 s$ reg_waddr_o [4:0] $end
    $var wire 32 %% reg_wdata_o [31:0] $end
    $var wire  1 ?& reg_we_i $end
    $var wire  1 {$ reg_we_o $end
    $var wire  1 y' rst_i $end
    $scope module exe_type_r0 $end
     $var wire  3 a' funct3 [2:0] $end
     $var wire  7 i' funct7 [6:0] $end
     $var wire 32 O& inst_i [31:0] $end
     $var wire  1 -! isType_r $end
     $var wire 32 /& op1_i [31:0] $end
     $var wire 32 7& op2_i [31:0] $end
     $var wire  7 Y' opcode [6:0] $end
     $var wire 32 ]% reg_wdata_o [31:0] $end
     $var wire  1 ;( reg_we_o $end
     $var wire  1 y' rst_i $end
    $upscope $end
   $upscope $end
   $scope module exe_mem0 $end
    $var wire  1 #( clk_i $end
    $var wire  5 s$ reg_waddr_i [4:0] $end
    $var wire  5 W& reg_waddr_o [4:0] $end
    $var wire 32 %% reg_wdata_i [31:0] $end
    $var wire 32 g& reg_wdata_o [31:0] $end
    $var wire  1 {$ reg_we_i $end
    $var wire  1 _& reg_we_o $end
    $var wire  1 y' rst_i $end
   $upscope $end
   $scope module id0 $end
    $var wire  5 s$ exe_reg_waddr_i [4:0] $end
    $var wire 32 %% exe_reg_wdata_i [31:0] $end
    $var wire  1 {$ exe_reg_we_i $end
    $var wire 32 U% i_op1_o [31:0] $end
    $var wire 32 C i_op2_o [31:0] $end
    $var wire  5 ; i_reg1_raddr_o [4:0] $end
    $var wire  1 # i_reg1_re_o $end
    $var wire  5 C( i_reg2_raddr_o [4:0] $end
    $var wire  1 K( i_reg2_re_o $end
    $var wire  5 K i_reg_waddr_o [4:0] $end
    $var wire  1 + i_reg_we_o $end
    $var wire 32 }% inst_addr_i [31:0] $end
    $var wire 32 '& inst_i [31:0] $end
    $var wire 32 3$ inst_o [31:0] $end
    $var wire  5 -% mem_reg_waddr_i [4:0] $end
    $var wire 32 =% mem_reg_wdata_i [31:0] $end
    $var wire  1 5% mem_reg_we_i $end
    $var wire 32 +( op1_o [31:0] $end
    $var wire 32 E% op1_o_final [31:0] $end
    $var wire 32 3( op2_o [31:0] $end
    $var wire 32 M% op2_o_final [31:0] $end
    $var wire  7 )' opcode [6:0] $end
    $var wire 32 #$ r_op1_o [31:0] $end
    $var wire 32 +$ r_op2_o [31:0] $end
    $var wire  5 S r_reg1_raddr_o [4:0] $end
    $var wire  1 c r_reg1_re_o $end
    $var wire  5 [ r_reg2_raddr_o [4:0] $end
    $var wire  1 k r_reg2_re_o $end
    $var wire  5 { r_reg_waddr_o [4:0] $end
    $var wire  1 s r_reg_we_o $end
    $var wire  5 K$ reg1_raddr_o [4:0] $end
    $var wire 32 k$ reg1_rdata_i [31:0] $end
    $var wire  1 [$ reg1_re_o $end
    $var wire  5 S$ reg2_raddr_o [4:0] $end
    $var wire 32 y# reg2_rdata_i [31:0] $end
    $var wire  1 c$ reg2_re_o $end
    $var wire  5 C$ reg_waddr_o [4:0] $end
    $var wire  1 ;$ reg_we_o $end
    $var wire  1 y' rst_i $end
    $scope module inst_type_i $end
     $var wire  3 1' funct3 [2:0] $end
     $var wire 32 '& inst_i [31:0] $end
     $var wire 32 U% op1_o [31:0] $end
     $var wire 32 C op2_o [31:0] $end
     $var wire  5 9' rd [4:0] $end
     $var wire  5 ; reg1_raddr_o [4:0] $end
     $var wire 32 k$ reg1_rdata_i [31:0] $end
     $var wire  1 # reg1_re_o $end
     $var wire  5 C( reg2_raddr_o [4:0] $end
     $var wire 32 y# reg2_rdata_i [31:0] $end
     $var wire  1 K( reg2_re_o $end
     $var wire  5 K reg_waddr_o [4:0] $end
     $var wire  1 + reg_we_o $end
     $var wire  5 A' rs1 [4:0] $end
     $var wire  5 I' rs2 [4:0] $end
    $upscope $end
    $scope module inst_type_r $end
     $var wire  3 1' funct3 [2:0] $end
     $var wire  7 Q' funct7 [6:0] $end
     $var wire 32 '& inst_i [31:0] $end
     $var wire  1 %! isType_r $end
     $var wire 32 #$ op1_o [31:0] $end
     $var wire 32 +$ op2_o [31:0] $end
     $var wire  7 )' opcode [6:0] $end
     $var wire  5 9' rd [4:0] $end
     $var wire  5 S reg1_raddr_o [4:0] $end
     $var wire 32 k$ reg1_rdata_i [31:0] $end
     $var wire  1 c reg1_re_o $end
     $var wire  5 [ reg2_raddr_o [4:0] $end
     $var wire 32 y# reg2_rdata_i [31:0] $end
     $var wire  1 k reg2_re_o $end
     $var wire  5 { reg_waddr_o [4:0] $end
     $var wire  1 s reg_we_o $end
     $var wire  5 A' rs1 [4:0] $end
     $var wire  5 I' rs2 [4:0] $end
    $upscope $end
   $upscope $end
   $scope module id_exe0 $end
    $var wire  1 #( clk_i $end
    $var wire 32 3$ inst_i [31:0] $end
    $var wire 32 O& inst_o [31:0] $end
    $var wire 32 +( op1_i [31:0] $end
    $var wire 32 /& op1_o [31:0] $end
    $var wire 32 3( op2_i [31:0] $end
    $var wire 32 7& op2_o [31:0] $end
    $var wire  5 C$ reg_waddr_i [4:0] $end
    $var wire  5 G& reg_waddr_o [4:0] $end
    $var wire  1 ;$ reg_we_i $end
    $var wire  1 ?& reg_we_o $end
    $var wire  1 y' rst_i $end
   $upscope $end
   $scope module if_id0 $end
    $var wire  1 #( clk_i $end
    $var wire 32 e% inst_addr_i [31:0] $end
    $var wire 32 }% inst_addr_o [31:0] $end
    $var wire 32 u% inst_i [31:0] $end
    $var wire 32 '& inst_o [31:0] $end
    $var wire  1 y' rst_i $end
   $upscope $end
   $scope module mem0 $end
    $var wire  5 W& reg_waddr_i [4:0] $end
    $var wire  5 -% reg_waddr_o [4:0] $end
    $var wire 32 g& reg_wdata_i [31:0] $end
    $var wire 32 =% reg_wdata_o [31:0] $end
    $var wire  1 _& reg_we_i $end
    $var wire  1 5% reg_we_o $end
    $var wire  1 y' rst_i $end
   $upscope $end
   $scope module mem_wb0 $end
    $var wire  1 #( clk_i $end
    $var wire  5 -% reg_waddr_i [4:0] $end
    $var wire  5 o& reg_waddr_o [4:0] $end
    $var wire 32 =% reg_wdata_i [31:0] $end
    $var wire 32 !' reg_wdata_o [31:0] $end
    $var wire  1 5% reg_we_i $end
    $var wire  1 w& reg_we_o $end
    $var wire  1 y' rst_i $end
   $upscope $end
   $scope module pc_reg0 $end
    $var wire  1 m% ce_o $end
    $var wire  1 #( clk_i $end
    $var wire 32 e% pc_o [31:0] $end
    $var wire  1 y' rst_i $end
   $upscope $end
   $scope module regfile0 $end
    $var wire  1 #( clk_i $end
    $var wire 32 3 i [31:0] $end
    $var wire  5 K$ raddr1_i [4:0] $end
    $var wire  5 S$ raddr2_i [4:0] $end
    $var wire 32 k$ rdata1_o [31:0] $end
    $var wire 32 y# rdata2_o [31:0] $end
    $var wire  1 [$ re1_i $end
    $var wire  1 c$ re2_i $end
    $var wire 32 5! regs(0) [31:0] $end
    $var wire 32 6! regs(1) [31:0] $end
    $var wire 32 ?! regs(10) [31:0] $end
    $var wire 32 @! regs(11) [31:0] $end
    $var wire 32 A! regs(12) [31:0] $end
    $var wire 32 B! regs(13) [31:0] $end
    $var wire 32 C! regs(14) [31:0] $end
    $var wire 32 D! regs(15) [31:0] $end
    $var wire 32 E! regs(16) [31:0] $end
    $var wire 32 F! regs(17) [31:0] $end
    $var wire 32 G! regs(18) [31:0] $end
    $var wire 32 H! regs(19) [31:0] $end
    $var wire 32 7! regs(2) [31:0] $end
    $var wire 32 I! regs(20) [31:0] $end
    $var wire 32 J! regs(21) [31:0] $end
    $var wire 32 K! regs(22) [31:0] $end
    $var wire 32 L! regs(23) [31:0] $end
    $var wire 32 M! regs(24) [31:0] $end
    $var wire 32 N! regs(25) [31:0] $end
    $var wire 32 O! regs(26) [31:0] $end
    $var wire 32 P! regs(27) [31:0] $end
    $var wire 32 Q! regs(28) [31:0] $end
    $var wire 32 R! regs(29) [31:0] $end
    $var wire 32 8! regs(3) [31:0] $end
    $var wire 32 S! regs(30) [31:0] $end
    $var wire 32 T! regs(31) [31:0] $end
    $var wire 32 9! regs(4) [31:0] $end
    $var wire 32 :! regs(5) [31:0] $end
    $var wire 32 ;! regs(6) [31:0] $end
    $var wire 32 <! regs(7) [31:0] $end
    $var wire 32 =! regs(8) [31:0] $end
    $var wire 32 >! regs(9) [31:0] $end
    $var wire  1 y' rst_i $end
    $var wire  5 o& waddr_i [4:0] $end
    $var wire 32 !' wdata_i [31:0] $end
    $var wire  1 w& we_i $end
   $upscope $end
   $scope module rom0 $end
    $var wire 21 q' addr4 [20:0] $end
    $var wire 32 e% addr_i [31:0] $end
    $var wire  1 m% ce_i $end
    $var wire  1 #( clk_i $end
    $var wire 32 u% inst_o [31:0] $end
   $upscope $end
  $upscope $end
 $upscope $end
$enddefinitions $end


#5
1#
1+
b00000000000000000000000000100000 3
b00000 ;
b00000000000000000000000000000000 C
b00000 K
b00000 S
b00000 [
0c
0k
0s
b00000 {
0%!
0-!
b00000000000000000000000000000000 5!
b00000000000000000000000000000000 6!
b00000000000000000000000000000000 7!
b00000000000000000000000000000000 8!
b00000000000000000000000000000000 9!
b00000000000000000000000000000000 :!
b00000000000000000000000000000000 ;!
b00000000000000000000000000000000 <!
b00000000000000000000000000000000 =!
b00000000000000000000000000000000 >!
b00000000000000000000000000000000 ?!
b00000000000000000000000000000000 @!
b00000000000000000000000000000000 A!
b00000000000000000000000000000000 B!
b00000000000000000000000000000000 C!
b00000000000000000000000000000000 D!
b00000000000000000000000000000000 E!
b00000000000000000000000000000000 F!
b00000000000000000000000000000000 G!
b00000000000000000000000000000000 H!
b00000000000000000000000000000000 I!
b00000000000000000000000000000000 J!
b00000000000000000000000000000000 K!
b00000000000000000000000000000000 L!
b00000000000000000000000000000000 M!
b00000000000000000000000000000000 N!
b00000000000000000000000000000000 O!
b00000000000000000000000000000000 P!
b00000000000000000000000000000000 Q!
b00000000000000000000000000000000 R!
b00000000000000000000000000000000 S!
b00000000000000000000000000000000 T!
b00000000000000000000000000000000 y#
b00000000000000000000000000000000 #$
b00000000000000000000000000000000 +$
b00000000000000000000000000010011 3$
0;$
b00000 C$
b00000 K$
b00000 S$
0[$
0c$
b00000000000000000000000000000000 k$
b00000 s$
0{$
b00000000000000000000000000000000 %%
b00000 -%
15%
b00000000000000000000000000000000 =%
b00000000000000000000000000000000 E%
b00000000000000000000000000000000 M%
b00000000000000000000000000000000 U%
b00000000000000000000000000000000 ]%
b00000000000000000000000000000000 e%
0m%
b00000000000000000000000000000000 u%
b00000000000000000000000000000000 }%
b00000000000000000000000000000000 '&
b00000000000000000000000000000000 /&
b00000000000000000000000000000000 7&
0?&
b00000 G&
b00000000000000000000000000000000 O&
b00000 W&
0_&
b00000000000000000000000000000000 g&
b00000 o&
0w&
b00000000000000000000000000000000 !'
b0000000 )'
b000 1'
b00000 9'
b00000 A'
b00000 I'
b0000000 Q'
b0000000 Y'
b000 a'
b0000000 i'
b000000000000000000000 q'
1y'
0#(
b00000000000000000000000000000000 +(
b00000000000000000000000000000000 3(
0;(
b00000 C(
0K(
#10
b00000000000000000000000000010011 '&
b00000000000000000000000000010011 O&
1_&
1w&
b0010011 )'
b0010011 Y'
1#(
#15
0#(
#20
1#(
#25
0#(
#30
1#(
#35
0#(
#40
1#(
#45
0#(
#50
1#(
#55
1;$
1[$
0y'
0#(
#60
0;$
0[$
1{$
05%
1m%
b00000000000000000000000000000000 '&
1?&
0_&
b0000000 )'
1#(
#65
0#(
#70
0{$
15%
b00000000000000000000000000000100 e%
b00000000010000001110000010010011 u%
0?&
1_&
0w&
b000000000000000000100 q'
1#(
#75
0#(
#80
b00001 ;
b00000000000000000000000000000100 C
b00001 K
b00000000010000001110000010010011 3$
1;$
b00001 C$
b00001 K$
1[$
05%
b00000000000000000000000000000100 M%
b00000000000000000000000000001000 e%
b00000000101000010110000100010011 u%
b00000000000000000000000000000100 }%
b00000000010000001110000010010011 '&
0_&
1w&
b0010011 )'
b110 1'
b00001 9'
b00001 A'
b00100 I'
b000000000000000001000 q'
1#(
b00000000000000000000000000000100 3(
#85
0#(
#90
b00010 ;
b00000000000000000000000000001010 C
b00010 K
b00000000101000010110000100010011 3$
b00010 C$
b00010 K$
b00001 s$
1{$
b00000000000000000000000000000100 %%
b00000000000000000000000000001010 M%
b00000000000000000000000000001100 e%
b01000000001000001000000110110011 u%
b00000000000000000000000000001000 }%
b00000000101000010110000100010011 '&
b00000000000000000000000000000100 7&
1?&
b00001 G&
b00000000010000001110000010010011 O&
0w&
b00010 9'
b00010 A'
b01010 I'
b110 a'
b000000000000000001100 q'
1#(
b00000000000000000000000000001010 3(
#95
0#(
#100
b00001 ;
b00000000000000000000010000000010 C
b00011 K
b00001 S
b00010 [
1c
1k
1s
b00011 {
1%!
b01000000001000001000000110110011 3$
b00011 C$
b00001 K$
b00010 S$
1c$
b00010 s$
b00000000000000000000000000001010 %%
b00001 -%
15%
b00000000000000000000000000000100 =%
b00000000000000000000000000000000 M%
b00000000000000000000000000010000 e%
b00000000000100011000001000110011 u%
b00000000000000000000000000001100 }%
b01000000001000001000000110110011 '&
b00000000000000000000000000001010 7&
b00010 G&
b00000000101000010110000100010011 O&
b00001 W&
1_&
b00000000000000000000000000000100 g&
b0110011 )'
b000 1'
b00011 9'
b00001 A'
b00010 I'
b0100000 Q'
b000000000000000010000 q'
1#(
b00000000000000000000000000000100 +(
#105
0#(
#110
b00011 ;
b00000000000000000000000000000001 C
b00100 K
b00011 S
b00001 [
b00100 {
1-!
b00000000000000000000000000000100 y#
b00000000000000000000000000000100 +$
b00000000000100011000001000110011 3$
b00100 C$
b00011 K$
b00001 S$
b00011 s$
b11111111111111111111111111111010 %%
b00010 -%
b00000000000000000000000000001010 =%
b00000000000000000000000000000100 M%
b11111111111111111111111111111010 ]%
b00000000000000000000000000010100 e%
b00000000000100010110001010110011 u%
b00000000000000000000000000010000 }%
b00000000000100011000001000110011 '&
b00000000000000000000000000000100 /&
b00011 G&
b01000000001000001000000110110011 O&
b00010 W&
b00000000000000000000000000001010 g&
b00001 o&
1w&
b00000000000000000000000000000100 !'
b00100 9'
b00011 A'
b00001 I'
b0000000 Q'
b0110011 Y'
b000 a'
b0100000 i'
b000000000000000010100 q'
1#(
b11111111111111111111111111111010 +(
b00000000000000000000000000000100 3(
1;(
#115
0#(
#120
b00010 ;
b00101 K
b00010 S
b00101 {
b00000000000000000000000000000100 6!
b00000000000000000000000000001010 #$
b00000000000100010110001010110011 3$
b00101 C$
b00010 K$
b00000000000000000000000000001010 k$
b00100 s$
b11111111111111111111111111111110 %%
b00011 -%
b11111111111111111111111111111010 =%
b00000000000000000000000000001010 E%
b00000000000000000000000000001010 U%
b11111111111111111111111111111110 ]%
b00000000000000000000000000011000 e%
b00000000000100011001001100110011 u%
b00000000000000000000000000010100 }%
b00000000000100010110001010110011 '&
b11111111111111111111111111111010 /&
b00000000000000000000000000000100 7&
b00100 G&
b00000000000100011000001000110011 O&
b00011 W&
b11111111111111111111111111111010 g&
b00010 o&
b00000000000000000000000000001010 !'
b110 1'
b00101 9'
b00010 A'
b0000000 i'
b000000000000000011000 q'
1#(
b00000000000000000000000000001010 +(
#125
0#(
#130
b00011 ;
b00110 K
b00011 S
b00110 {
b00000000000000000000000000001010 7!
b11111111111111111111111111111010 #$
b00000000000100011001001100110011 3$
b00110 C$
b00011 K$
b11111111111111111111111111111010 k$
b00101 s$
b00000000000000000000000000001110 %%
b00100 -%
b11111111111111111111111111111110 =%
b11111111111111111111111111111010 E%
b11111111111111111111111111111010 U%
b00000000000000000000000000001110 ]%
b00000000000000000000000000011100 e%
b00000000010000010010001110110011 u%
b00000000000000000000000000011000 }%
b00000000000100011001001100110011 '&
b00000000000000000000000000001010 /&
b00101 G&
b00000000000100010110001010110011 O&
b00100 W&
b11111111111111111111111111111110 g&
b00011 o&
b11111111111111111111111111111010 !'
b001 1'
b00110 9'
b00011 A'
b110 a'
b000000000000000011100 q'
1#(
b11111111111111111111111111111010 +(
#135
0#(
#140
b00010 ;
b00000000000000000000000000000100 C
b00111 K
b00010 S
b00100 [
b00111 {
b11111111111111111111111111111010 8!
b11111111111111111111111111111110 y#
b00000000000000000000000000001010 #$
b11111111111111111111111111111110 +$
b00000000010000010010001110110011 3$
b00111 C$
b00010 K$
b00100 S$
b00000000000000000000000000001010 k$
b00110 s$
b11111111111111111111111110100000 %%
b00101 -%
b00000000000000000000000000001110 =%
b00000000000000000000000000001010 E%
b11111111111111111111111111111110 M%
b00000000000000000000000000001010 U%
b11111111111111111111111110100000 ]%
b00000000000000000000000000100000 e%
b00000000010000010011010000110011 u%
b00000000000000000000000000011100 }%
b00000000010000010010001110110011 '&
b11111111111111111111111111111010 /&
b00110 G&
b00000000000100011001001100110011 O&
b00101 W&
b00000000000000000000000000001110 g&
b00100 o&
b11111111111111111111111111111110 !'
b010 1'
b00111 9'
b00010 A'
b00100 I'
b001 a'
b000000000000000100000 q'
1#(
b00000000000000000000000000001010 +(
b11111111111111111111111111111110 3(
#145
0#(
#150
b01000 K
b01000 {
b11111111111111111111111111111110 9!
b00000000010000010011010000110011 3$
b01000 C$
b00111 s$
b00000000000000000000000000000000 %%
b00110 -%
b11111111111111111111111110100000 =%
b00000000000000000000000000000000 ]%
b00000000000000000000000000100100 e%
b00000000000100101100010010110011 u%
b00000000000000000000000000100000 }%
b00000000010000010011010000110011 '&
b00000000000000000000000000001010 /&
b11111111111111111111111111111110 7&
b00111 G&
b00000000010000010010001110110011 O&
b00110 W&
b11111111111111111111111110100000 g&
b00101 o&
b00000000000000000000000000001110 !'
b011 1'
b01000 9'
b010 a'
b000000000000000100100 q'
1#(
#155
0#(
#160
b00101 ;
b00000000000000000000000000000001 C
b01001 K
b00101 S
b00001 [
b01001 {
b00000000000000000000000000001110 :!
b00000000000000000000000000000100 y#
b00000000000000000000000000001110 #$
b00000000000000000000000000000100 +$
b00000000000100101100010010110011 3$
b01001 C$
b00101 K$
b00001 S$
b00000000000000000000000000001110 k$
b01000 s$
b00000000000000000000000000000001 %%
b00111 -%
b00000000000000000000000000000000 =%
b00000000000000000000000000001110 E%
b00000000000000000000000000000100 M%
b00000000000000000000000000001110 U%
b00000000000000000000000000000001 ]%
b00000000000000000000000000101000 e%
b00000000000100011101010100110011 u%
b00000000000000000000000000100100 }%
b00000000000100101100010010110011 '&
b01000 G&
b00000000010000010011010000110011 O&
b00111 W&
b00000000000000000000000000000000 g&
b00110 o&
b11111111111111111111111110100000 !'
b100 1'
b01001 9'
b00101 A'
b00001 I'
b011 a'
b000000000000000101000 q'
1#(
b00000000000000000000000000001110 +(
b00000000000000000000000000000100 3(
#165
0#(
#170
b00011 ;
b01010 K
b00011 S
b01010 {
b11111111111111111111111110100000 ;!
b11111111111111111111111111111010 #$
b00000000000100011101010100110011 3$
b01010 C$
b00011 K$
b11111111111111111111111111111010 k$
b01001 s$
b00000000000000000000000000001010 %%
b01000 -%
b00000000000000000000000000000001 =%
b11111111111111111111111111111010 E%
b11111111111111111111111111111010 U%
b00000000000000000000000000001010 ]%
b00000000000000000000000000101100 e%
b01000000000100011101010110110011 u%
b00000000000000000000000000101000 }%
b00000000000100011101010100110011 '&
b00000000000000000000000000001110 /&
b00000000000000000000000000000100 7&
b01001 G&
b00000000000100101100010010110011 O&
b01000 W&
b00000000000000000000000000000001 g&
b00111 o&
b00000000000000000000000000000000 !'
b101 1'
b01010 9'
b00011 A'
b100 a'
b000000000000000101100 q'
1#(
b11111111111111111111111111111010 +(
#175
0#(
#180
b01011 K
b01011 {
b01000000000100011101010110110011 3$
b01011 C$
b01010 s$
b00001111111111111111111111111111 %%
b01001 -%
b00000000000000000000000000001010 =%
b00001111111111111111111111111111 ]%
b00000000000000000000000000110000 e%
b00000000000100101111011000110011 u%
b00000000000000000000000000101100 }%
b01000000000100011101010110110011 '&
b11111111111111111111111111111010 /&
b01010 G&
b00000000000100011101010100110011 O&
b01001 W&
b00000000000000000000000000001010 g&
b01000 o&
b00000000000000000000000000000001 !'
b01011 9'
b0100000 Q'
b101 a'
b000000000000000110000 q'
1#(
#185
0#(
#190
b00101 ;
b01100 K
b00101 S
b01100 {
b00000000000000000000000000000001 =!
b00000000000000000000000000001110 #$
b00000000000100101111011000110011 3$
b01100 C$
b00101 K$
b00000000000000000000000000001110 k$
b01011 s$
b11111111111111111111111111111111 %%
b01010 -%
b00001111111111111111111111111111 =%
b00000000000000000000000000001110 E%
b00000000000000000000000000001110 U%
b11111111111111111111111111111111 ]%
b00000000000000000000000000110100 e%
b00000000000000000000000000000000 u%
b00000000000000000000000000110000 }%
b00000000000100101111011000110011 '&
b01011 G&
b01000000000100011101010110110011 O&
b01010 W&
b00001111111111111111111111111111 g&
b01001 o&
b00000000000000000000000000001010 !'
b111 1'
b01100 9'
b00101 A'
b0000000 Q'
b0100000 i'
b000000000000000110100 q'
1#(
b00000000000000000000000000001110 +(
#195
0#(
#200
b00000 ;
b00000000000000000000000000000000 C
b00000 K
b00000 S
b00000 [
0c
0k
0s
b00000 {
0%!
b00000000000000000000000000001010 >!
b00000000000000000000000000000000 y#
b00000000000000000000000000000000 #$
b00000000000000000000000000000000 +$
b00000000000000000000000000010011 3$
0;$
b00000 C$
b00000 K$
b00000 S$
0[$
0c$
b00000000000000000000000000000000 k$
b01100 s$
b00000000000000000000000000000100 %%
b01011 -%
b11111111111111111111111111111111 =%
b00000000000000000000000000000000 E%
b00000000000000000000000000000000 M%
b00000000000000000000000000000000 U%
b00000000000000000000000000000100 ]%
b00000000000000000000000000111000 e%
b00000000000000000000000000110100 }%
b00000000000000000000000000000000 '&
b00000000000000000000000000001110 /&
b01100 G&
b00000000000100101111011000110011 O&
b01011 W&
b11111111111111111111111111111111 g&
b01010 o&
b00001111111111111111111111111111 !'
b0000000 )'
b000 1'
b00000 9'
b00000 A'
b00000 I'
b111 a'
b0000000 i'
b000000000000000111000 q'
1#(
b00000000000000000000000000000000 +(
b00000000000000000000000000000000 3(
#205
0#(
#210
0-!
b00001111111111111111111111111111 ?!
b00000 s$
0{$
b00000000000000000000000000000000 %%
b01100 -%
b00000000000000000000000000000100 =%
b00000000000000000000000000000000 ]%
b00000000000000000000000000111100 e%
b00000000000000000000000000111000 }%
b00000000000000000000000000000000 /&
b00000000000000000000000000000000 7&
0?&
b00000 G&
b00000000000000000000000000010011 O&
b01100 W&
b00000000000000000000000000000100 g&
b01011 o&
b11111111111111111111111111111111 !'
b0010011 Y'
b000 a'
b000000000000000111100 q'
1#(
0;(
#215
0#(
#220
b11111111111111111111111111111111 @!
b00000 -%
05%
b00000000000000000000000000000000 =%
b00000000000000000000000001000000 e%
b00000000000000000000000000111100 }%
b00000 W&
0_&
b00000000000000000000000000000000 g&
b01100 o&
b00000000000000000000000000000100 !'
b000000000000001000000 q'
1#(
#225
0#(
#230
b00000000000000000000000000000100 A!
b00000000000000000000000001000100 e%
b00000000000000000000000001000000 }%
b00000 o&
0w&
b00000000000000000000000000000000 !'
b000000000000001000100 q'
1#(
#235
0#(
#240
b00000000000000000000000001001000 e%
b00000000000000000000000001000100 }%
b000000000000001001000 q'
1#(
#245
0#(
#250
b00000000000000000000000001001100 e%
b00000000000000000000000001001000 }%
b000000000000001001100 q'
1#(
